xyz\herex\sprookjescraft\hotel\hotelsc\menu\Gui.class
xyz\herex\sprookjescraft\hotel\hotelsc\room\RoomManager.class
xyz\herex\sprookjescraft\hotel\hotelsc\menu\menus\ConfirmMenu.class
xyz\herex\sprookjescraft\hotel\hotelsc\HotelSC.class
xyz\herex\sprookjescraft\hotel\hotelsc\utils\C.class
xyz\herex\sprookjescraft\hotel\hotelsc\command\Command.class
xyz\herex\sprookjescraft\hotel\hotelsc\filemanager\Configs.class
xyz\herex\sprookjescraft\hotel\hotelsc\menu\InventorySize.class
xyz\herex\sprookjescraft\hotel\hotelsc\menu\GuiManager.class
xyz\herex\sprookjescraft\hotel\hotelsc\menu\GuiComponent.class
xyz\herex\sprookjescraft\hotel\hotelsc\utils\ItemBuilder.class
xyz\herex\sprookjescraft\hotel\hotelsc\menu\menus\RoomMenu.class
xyz\herex\sprookjescraft\hotel\hotelsc\filemanager\Config.class
xyz\herex\sprookjescraft\hotel\hotelsc\room\Room.class
xyz\herex\sprookjescraft\hotel\hotelsc\menu\GuiType.class
xyz\herex\sprookjescraft\hotel\hotelsc\events\PlayerEvents.class
