G:\Mijn Drive\Development\java\HotelSC\src\main\java\xyz\herex\sprookjescraft\hotel\hotelsc\utils\C.java
G:\Mijn Drive\Development\java\HotelSC\src\main\java\xyz\herex\sprookjescraft\hotel\hotelsc\HotelSC.java
G:\Mijn Drive\Development\java\HotelSC\src\main\java\xyz\herex\sprookjescraft\hotel\hotelsc\command\Command.java
G:\Mijn Drive\Development\java\HotelSC\src\main\java\xyz\herex\sprookjescraft\hotel\hotelsc\menu\menus\ConfirmMenu.java
G:\Mijn Drive\Development\java\HotelSC\src\main\java\xyz\herex\sprookjescraft\hotel\hotelsc\menu\GuiComponent.java
G:\Mijn Drive\Development\java\HotelSC\src\main\java\xyz\herex\sprookjescraft\hotel\hotelsc\menu\Gui.java
G:\Mijn Drive\Development\java\HotelSC\src\main\java\xyz\herex\sprookjescraft\hotel\hotelsc\menu\GuiType.java
G:\Mijn Drive\Development\java\HotelSC\src\main\java\xyz\herex\sprookjescraft\hotel\hotelsc\menu\menus\RoomMenu.java
G:\Mijn Drive\Development\java\HotelSC\src\main\java\xyz\herex\sprookjescraft\hotel\hotelsc\events\PlayerEvents.java
G:\Mijn Drive\Development\java\HotelSC\src\main\java\xyz\herex\sprookjescraft\hotel\hotelsc\utils\ItemBuilder.java
G:\Mijn Drive\Development\java\HotelSC\src\main\java\xyz\herex\sprookjescraft\hotel\hotelsc\filemanager\Configs.java
G:\Mijn Drive\Development\java\HotelSC\src\main\java\xyz\herex\sprookjescraft\hotel\hotelsc\filemanager\Config.java
G:\Mijn Drive\Development\java\HotelSC\src\main\java\xyz\herex\sprookjescraft\hotel\hotelsc\menu\InventorySize.java
G:\Mijn Drive\Development\java\HotelSC\src\main\java\xyz\herex\sprookjescraft\hotel\hotelsc\room\RoomManager.java
G:\Mijn Drive\Development\java\HotelSC\src\main\java\xyz\herex\sprookjescraft\hotel\hotelsc\room\Room.java
G:\Mijn Drive\Development\java\HotelSC\src\main\java\xyz\herex\sprookjescraft\hotel\hotelsc\menu\GuiManager.java
